…
  - How many aisles are there, and which aisles are the most items
    ordered from?

<!-- end list -->

``` r
instacart %>% 
group_by (aisle_id) %>% 
  summarize (n_obs = n()) %>% 
arrange(desc(n_obs))
```

    ## # A tibble: 134 x 2
    ##    aisle_id  n_obs
    ##       <int>  <int>
    ##  1       83 150609
    ##  2       24 150473
    ##  3      123  78493
    ##  4      120  55240
    ##  5       21  41699
    ##  6      115  36617
    ##  7       84  32644
    ##  8      107  31269
    ##  9       91  26240
    ## 10      112  23635
    ## # ... with 124 more rows
…
